<?xml version="1.0" encoding="UTF-8"?>
<svg width="20px" height="20px" viewBox="0 0 20 20" version="1.1" xmlns="http://www.w3.org/2000/svg" xmlns:xlink="http://www.w3.org/1999/xlink">
    <!-- Generator: Sketch 50.2 (55047) - http://www.bohemiancoding.com/sketch -->
    <title>iconfinder_199_CircledPlus_183316</title>
    <desc>Created with Sketch.</desc>
    <defs></defs>
    <g id="Page-1" stroke="none" stroke-width="1" fill="none" fill-rule="evenodd">
        <g id="iconfinder_199_CircledPlus_183316" fill="#2472DC" fill-rule="nonzero">
            <path d="M5,8.75 L5,11.25 L8.75,11.25 L8.75,15 L11.25,15 L11.25,11.25 L15,11.25 L15,8.75 L11.25,8.75 L11.25,5 L8.75,5 L8.75,8.75 L5,8.75 Z M10,20 C4.47715223,20 0,15.5228475 0,10 C0,4.4771525 4.47715223,0 10,0 C15.5228478,0 20,4.4771525 20,10 C20,15.5228475 15.5228478,20 10,20 Z" id="Oval-210-copy"></path>
        </g>
    </g>
</svg>